…
``` r
## aggregate across minutes to create total activity count per day in table
daily_accel <- accel %>% 
  group_by(day_id) %>% 
  summarize(daily_ct = sum(activity_ct))
```

    ## `summarise()` ungrouping output (override with `.groups` argument)

``` r
daily_accel
```

    ## # A tibble: 35 x 2
    ##    day_id daily_ct
    ##     <dbl>    <dbl>
    ##  1      1  480543.
    ##  2      2   78828.
    ##  3      3  376254 
    ##  4      4  631105 
    ##  5      5  355924.
    ##  6      6  307094.
    ##  7      7  340115.
    ##  8      8  568839 
    ##  9      9  295431 
    ## 10     10  607175 
    ## # … with 25 more rows
…
A bit more than half the observations (1,222,433) contain at least one
missing metric out of the five.

``` r
## separate month date year; mutate precip to mm to be same as snow; tmax and tmin to degrees C instead of 10ths of degree
cleaned_ny_noaa <- ny_noaa %>% 
  separate(date, c("year", "month", "date")) %>% 
  mutate(prcp = prcp/10,
         tmax = as.integer(tmax)/10,
         tmin = as.integer(tmin)/10)
cleaned_ny_noaa
```

    ## # A tibble: 2,595,176 x 9
    ##    id          year  month date   prcp  snow  snwd  tmax  tmin
    ##    <chr>       <chr> <chr> <chr> <dbl> <int> <int> <dbl> <dbl>
    ##  1 US1NYAB0001 2007  11    01       NA    NA    NA    NA    NA
    ##  2 US1NYAB0001 2007  11    02       NA    NA    NA    NA    NA
    ##  3 US1NYAB0001 2007  11    03       NA    NA    NA    NA    NA
    ##  4 US1NYAB0001 2007  11    04       NA    NA    NA    NA    NA
    ##  5 US1NYAB0001 2007  11    05       NA    NA    NA    NA    NA
    ##  6 US1NYAB0001 2007  11    06       NA    NA    NA    NA    NA
    ##  7 US1NYAB0001 2007  11    07       NA    NA    NA    NA    NA
    ##  8 US1NYAB0001 2007  11    08       NA    NA    NA    NA    NA
    ##  9 US1NYAB0001 2007  11    09       NA    NA    NA    NA    NA
    ## 10 US1NYAB0001 2007  11    10       NA    NA    NA    NA    NA
    ## # … with 2,595,166 more rows
…
``` r
## filter jan and july months
jan_jul_temps <- cleaned_ny_noaa %>% 
  filter(month == "01" | month == "07") %>% 
  select(id, year, month, date, tmax) %>% 
  drop_na()

## aggregate to get df of year, month (01 or 07), mean tmax; make year a double for plotting
jan_jul_temps
```

    ## # A tibble: 216,663 x 5
    ##    id          year  month date   tmax
    ##    <chr>       <chr> <chr> <chr> <dbl>
    ##  1 USC00300023 1981  01    01     -5.6
    ##  2 USC00300023 1981  01    02     -8.9
    ##  3 USC00300023 1981  01    03    -12.2
    ##  4 USC00300023 1981  01    04     -9.4
    ##  5 USC00300023 1981  01    05     -5.6
    ##  6 USC00300023 1981  01    11    -11.7
    ##  7 USC00300023 1981  01    12    -12.2
    ##  8 USC00300023 1981  01    13     -6.7
    ##  9 USC00300023 1981  01    14     -8.3
    ## 10 USC00300023 1981  01    15     -5  
    ## # … with 216,653 more rows
…
``` r
jan_jul_mean_temps <- jan_jul_temps %>% 
  group_by(id, year, month) %>% 
  summarize(mean_tmax = mean(tmax)) %>% 
  mutate(year = as.numeric(year))
```

    ## `summarise()` regrouping output by 'id', 'year' (override with `.groups` argument)

``` r
jan_jul_mean_temps
```

    ## # A tibble: 7,253 x 4
    ## # Groups:   id, year [3,837]
    ##    id           year month mean_tmax
    ##    <chr>       <dbl> <chr>     <dbl>
    ##  1 USC00300023  1981 01        -3.17
    ##  2 USC00300023  1981 07        28.3 
    ##  3 USC00300023  1982 07        27.8 
    ##  4 USC00300023  1983 01         1.11
    ##  5 USC00300023  1983 07        29.8 
    ##  6 USC00300023  1984 07        27.2 
    ##  7 USC00300023  1985 01        -1.30
    ##  8 USC00300023  1989 07        27.1 
    ##  9 USC00300023  1990 01         4.92
    ## 10 USC00300023  1990 07        27.0 
    ## # … with 7,243 more rows
…
    ## `summarise()` regrouping output by 'year', 'month' (override with `.groups` argument)

``` r
cleaned_snow
```

    ## # A tibble: 30,652 x 4
    ## # Groups:   year, month [242]
    ##    year  month id          agg_snow
    ##    <chr> <chr> <chr>          <dbl>
    ##  1 1981  01    USC00300023     51  
    ##  2 1981  01    USC00300055     30.2
    ##  3 1981  01    USC00300085     24.8
    ##  4 1981  01    USC00300183     42.2
    ##  5 1981  01    USC00300220     38.9
    ##  6 1981  01    USC00300254     35.2
    ##  7 1981  01    USC00300331     18.9
    ##  8 1981  01    USC00300343     33.6
    ##  9 1981  01    USC00300379     42  
    ## 10 1981  01    USC00300424     34.2
    ## # … with 30,642 more rows
…
