…
``` r
## How many aisles are there?
length(unique(instacart$aisle_id))
```

    ## [1] 134

``` r
## which aisles are the most items ordered from?
instacart %>% 
  count(aisle, name = "n_obs") %>% 
  arrange(desc(n_obs))
```

    ## # A tibble: 134 x 2
    ##    aisle                          n_obs
    ##    <chr>                          <int>
    ##  1 fresh vegetables              150609
    ##  2 fresh fruits                  150473
    ##  3 packaged vegetables fruits     78493
    ##  4 yogurt                         55240
    ##  5 packaged cheese                41699
    ##  6 water seltzer sparkling water  36617
    ##  7 milk                           32644
    ##  8 chips pretzels                 31269
    ##  9 soy lactosefree                26240
    ## 10 bread                          23635
    ## # … with 124 more rows
…
    ## 
    ## ── Column specification ──────────────────────────────────────────────────────────────────────────────────────────────
    ## cols(
    ##   .default = col_double(),
    ##   day = col_character()
    ## )
    ## ℹ Use `spec()` for the full column specifications.

``` r
accel
```

    ## # A tibble: 50,400 x 5
    ##     week day_id day    minute_of_day activity_ct
    ##    <dbl>  <dbl> <chr>  <chr>               <dbl>
    ##  1     1      1 Friday activity_1           88.4
    ##  2     1      1 Friday activity_2           82.2
    ##  3     1      1 Friday activity_3           64.4
    ##  4     1      1 Friday activity_4           70.0
    ##  5     1      1 Friday activity_5           75.0
    ##  6     1      1 Friday activity_6           66.3
    ##  7     1      1 Friday activity_7           53.8
    ##  8     1      1 Friday activity_8           47.8
    ##  9     1      1 Friday activity_9           55.5
    ## 10     1      1 Friday activity_10          43.0
    ## # … with 50,390 more rows
…
``` r
## aggregate across minutes to create total activity count per day
daily_accel <- accel %>% 
  group_by(day_id) %>% 
  summarize(daily_ct = sum(activity_ct))
```

    ## `summarise()` ungrouping output (override with `.groups` argument)

``` r
daily_accel
```

    ## # A tibble: 35 x 2
    ##    day_id daily_ct
    ##     <dbl>    <dbl>
    ##  1      1  480543.
    ##  2      2   78828.
    ##  3      3  376254 
    ##  4      4  631105 
    ##  5      5  355924.
    ##  6      6  307094.
    ##  7      7  340115.
    ##  8      8  568839 
    ##  9      9  295431 
    ## 10     10  607175 
    ## # … with 25 more rows
…
